<!DOCTYPE svg PUBLIC "-//W3C//DTD SVG 20010904//EN" "http://www.w3.org/TR/2001/REC-SVG-20010904/DTD/svg10.dtd">
<svg version="1.0" xmlns="http://www.w3.org/2000/svg" width="631px" height="412px" viewBox="0 0 6310 4120" preserveAspectRatio="xMidYMid meet">
<g id="layer101" fill="#01d08f" stroke="none">
 <path d="M0 2060 l0 -2060 3155 0 3155 0 0 2060 0 2060 -3155 0 -3155 0 0 -2060z"/>
 </g>
<g id="layer102" fill="#ffffff" stroke="none">
 <path d="M0 2060 l0 -2060 3155 0 3155 0 0 2060 0 2060 -3155 0 -3155 0 0 -2060z m654 1863 c14 -76 42 -223 61 -328 46 -243 65 -325 74 -325 4 0 16 46 26 103 33 187 126 671 131 679 7 10 101 10 108 0 2 -4 20 -108 40 -232 20 -124 59 -368 87 -542 29 -174 49 -323 46 -332 -7 -17 -81 -23 -105 -8 -7 5 -21 61 -32 133 -10 68 -35 232 -55 364 -20 132 -39 249 -42 260 -4 12 -15 -25 -28 -95 -12 -63 -46 -238 -75 -388 l-53 -273 -55 3 -56 3 -24 125 c-61 328 -114 592 -121 613 -8 21 -9 20 -14 -8 -3 -16 -13 -77 -21 -135 -64 -435 -87 -587 -91 -597 -5 -15 -92 -18 -113 -4 -14 9 -15 1 99 706 33 204 63 380 66 393 5 20 11 22 63 22 l57 0 27 -137z m768 113 c4 -6 8 -21 8 -33 0 -12 6 -50 14 -85 8 -35 17 -80 20 -100 l7 -38 118 0 117 0 13 83 c27 178 29 185 61 192 16 4 50 3 75 0 38 -6 45 -10 40 -25 -3 -10 -10 -42 -15 -72 -5 -29 -39 -188 -75 -353 -36 -165 -70 -323 -75 -351 -15 -89 -62 -299 -69 -305 -3 -4 -34 -10 -67 -13 -46 -5 -65 -3 -76 7 -7 8 -30 92 -51 188 -140 654 -187 881 -187 898 0 11 6 22 13 25 20 9 121 -5 129 -18z m828 -481 l0 -505 95 0 95 0 0 -60 0 -60 -267 2 -268 3 -3 58 -3 57 96 0 95 0 0 505 0 505 80 0 80 0 0 -505z m742 470 c28 -21 53 -50 72 -89 27 -52 30 -69 34 -177 l4 -119 -69 0 -70 0 -6 103 c-7 123 -20 163 -58 182 -36 19 -112 19 -148 0 -16 -8 -36 -31 -46 -52 -16 -34 -18 -73 -19 -378 -1 -316 0 -343 18 -379 30 -59 107 -82 185 -55 46 16 61 55 69 172 l7 102 68 3 67 3 0 -93 c0 -161 -38 -246 -130 -295 -37 -20 -58 -23 -148 -23 -151 0 -200 28 -263 150 -20 38 -23 67 -32 278 -21 465 14 615 158 683 33 16 59 19 152 17 106 -3 113 -4 155 -33z m418 -230 l0 -265 145 0 145 0 2 263 3 262 78 3 77 3 0 -566 0 -566 -77 3 -78 3 -3 243 -2 242 -145 0 -145 0 0 -245 0 -246 -77 3 -78 3 -3 550 c-1 303 0 556 3 563 3 8 29 12 80 12 l75 0 0 -265z m1070 205 l0 -60 -145 0 -145 0 0 -505 0 -505 -59 0 c-33 0 -66 3 -75 6 -14 6 -16 65 -16 565 l0 559 220 0 220 0 0 -60z m270 -505 l0 -566 -77 3 -78 3 -3 550 c-1 303 0 556 3 563 3 8 29 12 80 12 l75 0 0 -565z m602 530 c23 -17 56 -51 73 -75 27 -41 30 -54 33 -138 4 -89 2 -97 -29 -160 -27 -56 -60 -95 -205 -237 -169 -167 -172 -171 -179 -220 -12 -91 31 -145 114 -145 81 0 130 46 146 135 12 63 13 64 82 43 62 -18 62 -19 56 -51 -22 -115 -93 -215 -168 -236 -69 -19 -193 -14 -242 10 -107 52 -156 198 -114 344 15 53 36 75 270 300 51 50 99 102 106 116 19 35 28 117 17 154 -19 66 -122 96 -188 56 -36 -22 -69 -87 -79 -154 -8 -53 -18 -57 -102 -36 l-45 12 5 48 c12 98 68 191 146 241 45 28 49 29 153 26 100 -3 109 -5 150 -33z m518 -470 l0 -505 95 0 95 0 0 -60 0 -60 -270 0 -270 0 0 60 0 60 95 0 95 0 0 505 0 505 80 0 80 0 0 -505z m-2782 -1047 c-113 -151 -143 -196 -191 -288 -93 -178 -147 -341 -189 -570 -18 -96 -21 -154 -22 -355 0 -155 4 -263 13 -304 l12 -64 -48 -50 c-51 -53 -222 -171 -313 -217 -30 -15 -86 -39 -125 -52 -77 -28 -252 -64 -262 -55 -16 16 -33 138 -39 272 -24 552 163 1059 514 1397 142 137 316 239 484 283 99 25 129 31 167 34 l23 1 -24 -32z m343 -8 c125 -37 318 -131 414 -202 148 -110 314 -299 406 -463 166 -294 251 -709 220 -1068 -6 -71 -14 -147 -17 -168 -6 -39 -8 -40 -38 -33 -67 14 -272 87 -340 121 -165 83 -331 210 -433 331 -211 254 -340 561 -388 923 -23 175 -16 537 11 581 10 15 62 8 165 -22z m-246 -312 l0 -333 33 -128 c78 -302 174 -499 357 -734 l56 -71 -20 -86 c-67 -280 -201 -552 -369 -746 l-30 -35 -42 40 c-108 103 -259 379 -336 613 -57 173 -73 281 -80 542 -5 184 -3 235 14 355 38 259 135 520 272 732 47 72 131 182 140 183 3 0 5 -150 5 -332z"/>
 <path d="M1500 3643 c0 -25 77 -434 83 -439 8 -8 81 339 89 416 l3 35 -87 3 c-79 2 -88 1 -88 -15z"/>
 </g>

</svg>
